[
    {
        "img": "https://res.cloudinary.com/dwlgplrj9/image/upload/v1712125579/monito/image_3_rledmk.png",
        "title": "What is a Pomeranian? How to Identify Pomeranian Dogs",
        "desc": "The Pomeranian, also known as the Pomeranian (Pom dog), is always in the top of the cutest pets. Not only that, the small, lovely, smart, friendly, and skillful circus dog breed."
    },
    {
        "img": "https://res.cloudinary.com/dwlgplrj9/image/upload/v1712125579/monito/image_3_1_c2hwts.png",
        "title": "Dog Diet You Need To Know",
        "desc": "Dividing a dog's diet may seem simple at first, but there are some rules you should know so that your dog can easily absorb the nutrients in the diet. For those who are just starting to raise dogs, especially newborn puppies with relatively weak resistance."
    },
    {
        "img": "https://res.cloudinary.com/dwlgplrj9/image/upload/v1712125579/monito/image_3_2_syaefh.png",
        "title": "Why Dogs Bite and Destroy Furniture and How to Prevent It Effectively",
        "desc": "Dog bites are common during development. However, no one wants to see their furniture or important items being bitten by a dog."
    }

   
]